23

9 9
10
f 2 5 w
t 7 0 n
h 3 4 w
f 6 6 s
f 6 7 s
h 8 5 e
r 4 1 n
r 4 0 n
t 5 1 n
t 4 2 w
707 92

2 3
3
t 1 2 n
f 1 0 e
r 0 1 w
1499 115

6 3
8
t 5 1 n
f 2 0 e
r 2 0 s
f 3 1 n
f 4 0 s
f 2 2 w
f 2 2 s
t 2 1 n
1031 26

5 6
7
r 1 5 e
h 3 3 n
t 1 5 w
f 3 4 n
r 2 2 s
f 1 5 w
r 3 4 s
401 37

10 10
3
f 0 2 n
r 3 6 e
r 9 6 n
359 148

10 10
8
h 2 0 s
t 5 4 w
t 2 7 w
t 9 6 n
f 1 4 e
h 6 8 e
f 3 9 w
r 3 6 n
10 200

5 2
1
f 4 1 s
1495 67

8 9
8
r 4 3 n
f 7 1 e
r 2 2 w
r 1 7 n
t 6 1 e
t 3 3 e
t 2 0 e
h 5 3 e
373 194

2 5
4
f 0 2 s
t 0 1 e
f 1 3 s
t 0 1 n
1323 151

2 2
5
h 0 1 n
t 1 1 w
t 0 0 n
f 0 1 e
f 1 0 n
1245 143

10 6
9
f 0 5 s
f 0 5 w
h 8 0 s
f 6 3 s
r 5 4 e
r 8 5 e
f 6 2 e
t 7 2 w
f 7 4 s
1212 116

6 9
7
r 4 3 n
h 0 0 n
r 2 1 e
r 2 1 e
r 0 2 n
t 1 8 s
h 3 7 s
1881 129

7 4
10
r 5 3 e
t 1 2 e
f 2 3 w
t 6 0 w
h 0 2 e
f 5 0 e
t 5 3 n
t 3 1 n
r 2 1 w
t 5 1 w
1861 173

8 8
5
h 5 6 w
t 2 1 w
f 3 2 n
t 1 1 e
f 6 3 w
327 130

10 3
6
t 8 0 w
r 9 1 w
r 7 0 e
h 6 0 w
f 7 2 w
t 7 1 s
616 198

1 6
1
h 0 1 w
1763 107

8 10
2
t 2 6 s
h 5 8 n
1827 177

9 9
10
h 7 5 e
h 5 8 s
f 5 0 n
h 0 0 w
t 3 6 w
h 1 0 e
h 8 6 e
h 0 5 e
r 5 7 n
r 1 5 n
981 108

4 2
6
h 1 1 e
r 1 0 e
f 0 1 e
t 1 1 w
f 3 1 s
t 1 0 n
922 52

10 6
3
t 3 3 e
r 9 5 e
h 4 2 w
1594 164

1 9
3
f 0 0 w
r 0 7 s
t 0 2 w
1029 100

8 9
1
f 7 7 w
518 89

3 6
5
r 2 2 w
t 2 3 e
f 2 4 s
h 1 1 s
h 1 2 w
96 121
