*** Darwin 5x19 ***
Turn = 0.
  0123456789012345678
0 f....h...h.........
1 ................t.t
2 ..h..............t.
3 f...........r......
4 ...........t...r.r.

Turn = 72.
  0123456789012345678
0 fh.......h.........
1 ................t.t
2 h................tt
3 f..................
4 ...........ttt.....

*** Darwin 8x16 ***
Turn = 0.
  0123456789012345
0 ................
1 ................
2 ................
3 ........t.......
4 ................
5 ................
6 ................
7 ................

Turn = 25.
  0123456789012345
0 ................
1 ................
2 ................
3 ........t.......
4 ................
5 ................
6 ................
7 ................

*** Darwin 15x11 ***
Turn = 0.
  01234567890
0 ...........
1 ...........
2 .......r...
3 ...........
4 ...........
5 ...........
6 ...........
7 ...........
8 ...........
9 ...........
0 .........h.
1 ...........
2 ...........
3 ...........
4 ...........

Turn = 58.
  01234567890
0 ....r......
1 ...........
2 ...........
3 ...........
4 ...........
5 ...........
6 r..........
7 ...........
8 ...........
9 ...........
0 ...........
1 ...........
2 ...........
3 ...........
4 ...........

*** Darwin 9x17 ***
Turn = 0.
  01234567890123456
0 .......h.f..rr...
1 .................
2 .....h..f.......h
3 .................
4 .................
5 .............r...
6 .....f......t....
7 ...........tt....
8 ................h

Turn = 15.
  01234567890123456
0 .....h.h.f.......
1 .........r.......
2 ........f...r....
3 ...........r.....
4 .................
5 .................
6 .....f......t....
7 ...........tt....
8 .......r........h

Turn = 30.
  01234567890123456
0 .....h.h.....r..r
1 ..r..............
2 rr...............
3 .................
4 .................
5 .................
6 .....f......t....
7 ...........tt....
8 ......r.........h

Turn = 45.
  01234567890123456
0 ........rr.......
1 .................
2 ...rr...........r
3 ..........r.....r
4 .................
5 .................
6 .....f......t....
7 ...........trr...
8 ................r

Turn = 60.
  01234567890123456
0 .................
1 ...r.............
2 ...r.r...........
3 ..r...........r.r
4 ..r..............
5 ...............r.
6 .....f......t....
7 ...........t.....
8 .r..........r....

*** Darwin 19x12 ***
Turn = 0.
  012345678901
0 ............
1 ....f.......
2 .f.......f.h
3 ..r.....t...
4 .....t......
5 ............
6 ............
7 ............
8 ...r........
9 ............
0 ............
1 ...f...f....
2 ............
3 ............
4 ............
5 ............
6 ............
7 ............
8 f...........

*** Darwin 16x11 ***
Turn = 0.
  01234567890
0 ...........
1 ...........
2 ...........
3 ...........
4 ...........
5 ...........
6 ...........
7 ...........
8 ...........
9 ...........
0 ...........
1 ...........
2 ...........
3 ...........
4 ........f..
5 ...........

*** Darwin 10x9 ***
Turn = 0.
  012345678
0 h.h......
1 .........
2 .t.......
3 .........
4 rh.r...f.
5 ...h.....
6 .........
7 .........
8 .........
9 .........

Turn = 54.
  012345678
0 .........
1 r........
2 ........r
3 r.......r
4 r......f.
5 .........
6 r........
7 .........
8 .........
9 r........

*** Darwin 16x11 ***
Turn = 0.
  01234567890
0 ...........
1 ...........
2 ...........
3 ...........
4 ...........
5 t..........
6 ..t.h......
7 ...........
8 ...........
9 ...........
0 ...........
1 ....t......
2 ...........
3 .h.........
4 ...........
5 ...........

Turn = 31.
  01234567890
0 ...........
1 ...........
2 ...........
3 ...........
4 ...........
5 t..........
6 ..tt.......
7 ...........
8 ...........
9 ...........
0 ...........
1 ....t......
2 ...........
3 ..........h
4 ...........
5 ...........

Turn = 62.
  01234567890
0 ...........
1 ...........
2 ...........
3 ...........
4 ...........
5 t..........
6 ..tt.......
7 ...........
8 ...........
9 ...........
0 ...........
1 ....t......
2 ...........
3 ..........h
4 ...........
5 ...........

*** Darwin 8x7 ***
Turn = 0.
  0123456
0 .....h.
1 t...h..
2 .t.....
3 .......
4 .h.....
5 .......
6 ..t....
7 ..t..t.

*** Darwin 16x13 ***
Turn = 0.
  0123456789012
0 .............
1 .............
2 .............
3 .............
4 .............
5 .............
6 .............
7 .............
8 ........r....
9 .............
0 .............
1 .............
2 ..........r..
3 .............
4 .............
5 .............

Turn = 68.
  0123456789012
0 .............
1 .............
2 .............
3 .............
4 .............
5 .............
6 .............
7 .............
8 ............r
9 ...........r.
0 .............
1 .............
2 .............
3 .............
4 .............
5 .............

*** Darwin 16x5 ***
Turn = 0.
  01234
0 ..t..
1 .....
2 .....
3 .....
4 ..h..
5 ...t.
6 .....
7 ....f
8 .f...
9 .....
0 .....
1 .....
2 ...h.
3 ..f..
4 t..h.
5 .....

*** Darwin 6x12 ***
Turn = 0.
  012345678901
0 ..........f.
1 ..h.........
2 t...........
3 ...t........
4 ..........f.
5 .......r....

Turn = 30.
  012345678901
0 ..........f.
1 t...........
2 t...........
3 t..t........
4 ..........f.
5 ............

Turn = 60.
  012345678901
0 ..........f.
1 t...........
2 t...........
3 t..t........
4 ..........f.
5 ............

Turn = 90.
  012345678901
0 ..........f.
1 t...........
2 t...........
3 t..t........
4 ..........f.
5 ............

*** Darwin 9x10 ***
Turn = 0.
  0123456789
0 .t........
1 .....r....
2 ........h.
3 .h........
4 ...t...h..
5 .........f
6 ....t.....
7 ..........
8 .......f..

*** Darwin 16x11 ***
Turn = 0.
  01234567890
0 ...........
1 ...........
2 ...........
3 ...........
4 ...........
5 ...........
6 ...........
7 ...........
8 ...........
9 ...........
0 ...........
1 ...........
2 ...........
3 .....h.....
4 ...........
5 ...........

Turn = 33.
  01234567890
0 ...........
1 ...........
2 ...........
3 ...........
4 ...........
5 ...........
6 ...........
7 ...........
8 ...........
9 ...........
0 ...........
1 ...........
2 ...........
3 ...........
4 ...........
5 .....h.....

*** Darwin 18x6 ***
Turn = 0.
  012345
0 ..h...
1 ......
2 ....t.
3 ......
4 ......
5 ......
6 ......
7 .f....
8 ......
9 ......
0 ......
1 ......
2 ......
3 ......
4 ....f.
5 ......
6 ......
7 ....t.

Turn = 60.
  012345
0 .....h
1 ......
2 ....t.
3 ......
4 ......
5 ......
6 ......
7 .f....
8 ......
9 ......
0 ......
1 ......
2 ......
3 ......
4 ....f.
5 ......
6 ......
7 ....t.

*** Darwin 20x20 ***
Turn = 0.
  01234567890123456789
0 ....................
1 .....h..............
2 ....................
3 ....................
4 ....................
5 ....................
6 ...........h........
7 ....................
8 ..................f.
9 ....................
0 ....................
1 ...........t........
2 ...h................
3 ....................
4 ....................
5 ....................
6 ....................
7 ....................
8 ....................
9 ....................

*** Darwin 11x10 ***
Turn = 0.
  0123456789
0 .....r..h.
1 ........tt
2 ..........
3 ..........
4 ..........
5 ......h...
6 ........ht
7 .......r..
8 ..h.......
9 ......r...
0 ......h...

Turn = 10.
  0123456789
0 .........t
1 ........tt
2 ..........
3 ..........
4 ..........
5 r.........
6 r.......tt
7 ..........
8 .........h
9 rr........
0 .....r....

Turn = 20.
  0123456789
0 rr.......t
1 ........tt
2 ..........
3 ..........
4 ..........
5 ..........
6 ........tt
7 .......r..
8 .........h
9 ..r.......
0 ..r.......

Turn = 30.
  0123456789
0 ........tt
1 ........tt
2 ..........
3 .........r
4 ..........
5 ..........
6 .....r....
7 ..........
8 .........r
9 .........r
0 r.......rr

Turn = 40.
  0123456789
0 ........tt
1 ........tt
2 r........t
3 ..........
4 ..........
5 ......r...
6 ..........
7 .....r....
8 ..r.r.....
9 .r........
0 ..........

Turn = 50.
  0123456789
0 ...rr...tt
1 ..r.....tt
2 .........t
3 .....r....
4 ..........
5 r.........
6 ..........
7 ..........
8 ..........
9 .....r....
0 ..........

Turn = 60.
  0123456789
0 ......r.tt
1 ....r...tt
2 r.....r..t
3 ..........
4 ..........
5 ..........
6 ..........
7 ..........
8 ..........
9 ..........
0 ...r..r...

*** Darwin 11x11 ***
Turn = 0.
  01234567890
0 .h.....t...
1 ...........
2 ......h...f
3 .......f...
4 ........h..
5 ...rf......
6 .........r.
7 ....f.....f
8 ....rr.....
9 ...........
0 .......h...

Turn = 20.
  01234567890
0 r......t.r.
1 ...........
2 ..........f
3 .......f.r.
4 r.....r....
5 ..........r
6 ..........r
7 ...........
8 ......r....
9 ..........r
0 .h....h....

Turn = 40.
  01234567890
0 .rr....r...
1 .r.........
2 ..r........
3 ...........
4 r..........
5 ...........
6 .rr....rrr.
7 r..........
8 ...........
9 ...........
0 ......rr...

Turn = 60.
  01234567890
0 .rr.......r
1 ...........
2 ....r......
3 r.r.r......
4 .r........r
5 ...........
6 ...........
7 ...........
8 ..........r
9 ...........
0 rr......r.r

Turn = 80.
  01234567890
0 .r.r.......
1 r..........
2 r........r.
3 r..........
4 r....rr.r..
5 .......r...
6 .......r...
7 ......r....
8 ...........
9 ...........
0 ......r....

*** Darwin 13x13 ***
Turn = 0.
  0123456789012
0 ...ft..t.....
1 ..t...r......
2 r............
3 .............
4 .............
5 .............
6 .............
7 .............
8 ............f
9 .............
0 .............
1 .............
2 .h...........

Turn = 6.
  0123456789012
0 ..ttt..t.....
1 ..t..........
2 .............
3 .............
4 .............
5 .............
6 .............
7 ......r......
8 ............f
9 .............
0 .............
1 .............
2 h............

Turn = 12.
  0123456789012
0 ..ttt..t.....
1 ..t..........
2 .............
3 .............
4 .............
5 .............
6 .............
7 .............
8 ............f
9 .............
0 .............
1 .............
2 h.....r......

Turn = 18.
  0123456789012
0 ..ttt..t.....
1 ..t..........
2 .............
3 .............
4 .............
5 .............
6 .............
7 .............
8 ............f
9 .............
0 .............
1 .............
2 h...........r

Turn = 24.
  0123456789012
0 ..ttt..t.....
1 ..t..........
2 .............
3 .............
4 .............
5 .............
6 .............
7 .............
8 ............f
9 .............
0 .............
1 .............
2 h.......r....

Turn = 30.
  0123456789012
0 ..ttt..t.....
1 ..t..........
2 .............
3 .............
4 .............
5 .............
6 .............
7 .............
8 ............f
9 .............
0 .............
1 .............
2 h.r..........

Turn = 36.
  0123456789012
0 ..ttt..t.....
1 ..t..........
2 .............
3 .............
4 .............
5 .............
6 .............
7 .............
8 ............f
9 rr...........
0 .............
1 .............
2 .............

Turn = 42.
  0123456789012
0 ..ttt..t.....
1 ..t..........
2 .............
3 rr...........
4 .............
5 .............
6 .............
7 .............
8 ............f
9 .............
0 .............
1 .............
2 .............

Turn = 48.
  0123456789012
0 rtttt..t.....
1 ..t..........
2 .............
3 .............
4 .............
5 .............
6 .............
7 .............
8 ............f
9 .............
0 .............
1 .............
2 .............

Turn = 54.
  0123456789012
0 .tttt..t.....
1 ..t..........
2 .............
3 .............
4 .............
5 r............
6 .............
7 .............
8 ............f
9 .............
0 .............
1 .............
2 .............

Turn = 60.
  0123456789012
0 .tttt..t.....
1 ..t..........
2 .............
3 .............
4 .............
5 .............
6 .............
7 .............
8 ............f
9 .............
0 .............
1 r............
2 .............

Turn = 66.
  0123456789012
0 .tttt..t.....
1 ..t..........
2 .............
3 .............
4 .............
5 .............
6 .............
7 .............
8 ............f
9 r............
0 .............
1 .............
2 .............

Turn = 72.
  0123456789012
0 .tttt..t.....
1 ..t..........
2 .............
3 r............
4 .............
5 .............
6 .............
7 .............
8 ............f
9 .............
0 .............
1 .............
2 .............

Turn = 78.
  0123456789012
0 .tttt..t.....
1 r.t..........
2 .............
3 .............
4 .............
5 .............
6 .............
7 .............
8 ............f
9 .............
0 .............
1 .............
2 .............

Turn = 84.
  0123456789012
0 .tttt..t.....
1 ..t..........
2 .............
3 .............
4 .............
5 .............
6 .............
7 r............
8 ............f
9 .............
0 .............
1 .............
2 .............

*** Darwin 5x8 ***
Turn = 0.
  01234567
0 t......t
1 ......h.
2 .f......
3 .....t..
4 ........

Turn = 50.
  01234567
0 t......t
1 ........
2 .f......
3 .....tt.
4 ........

*** Darwin 8x6 ***
Turn = 0.
  012345
0 r..hr.
1 ht....
2 .ht...
3 f.....
4 ......
5 ..t...
6 hf...f
7 ......

Turn = 71.
  012345
0 ......
1 ....rr
2 ....r.
3 ......
4 ....rr
5 ..t...
6 .tt..r
7 ..tt.r

*** Darwin 11x5 ***
Turn = 0.
  01234
0 .h...
1 .....
2 r....
3 .f...
4 .....
5 ...t.
6 .....
7 h....
8 .....
9 .....
0 .....

Turn = 31.
  01234
0 .....
1 .....
2 .h...
3 .f...
4 .....
5 ...t.
6 ....r
7 .....
8 .....
9 .....
0 ....r

Turn = 62.
  01234
0 r..r.
1 .....
2 ..r..
3 .....
4 .....
5 ...tr
6 .....
7 .....
8 .....
9 .....
0 .....

*** Darwin 11x9 ***
Turn = 0.
  012345678
0 ......r..
1 .....t...
2 .........
3 .........
4 rt.h.....
5 ...r.f...
6 .........
7 ft.......
8 .t.....h.
9 ......h..
0 ...f.....

Turn = 47.
  012345678
0 .....tttt
1 .....t..t
2 .........
3 .........
4 .........
5 .........
6 tt.......
7 t........
8 .t....r..
9 .........
0 .....r.r.
