*** Darwin 7x15 ***
Turn = 0.
  012345678901234
0 .....t..htt....
1 ...f...........
2 .....r.....r...
3 ..........f....
4 ........t......
5 ...............
6 ........f.....t

Turn = 8.
  012345678901234
0 .....t..ttt....
1 ...f...........
2 ...............
3 ..........f....
4 r.......t......
5 ...............
6 ........rr....t

*** Darwin 6x10 ***
Turn = 0.
  0123456789
0 ..f..fr...
1 ..rh....f.
2 ..f.f.....
3 .ft...f...
4 ...t......
5 .f........

Turn = 1.
  0123456789
0 ..f..f.r..
1 ..r.....f.
2 ..frf.....
3 .tt...f...
4 ...t......
5 .f........

Turn = 2.
  0123456789
0 ..f..f..r.
1 ...r....f.
2 ..f.f.....
3 .ttr..f...
4 ...t......
5 .f........

Turn = 3.
  0123456789
0 ..f..f...r
1 ....r...f.
2 ..f.f.....
3 .ttr..f...
4 ....r.....
5 .f........

Turn = 4.
  0123456789
0 ..f..f...r
1 .....r..f.
2 ..f.f.....
3 .ttt..f...
4 .....r....
5 .f........

Turn = 5.
  0123456789
0 ..f..f....
1 ......r.fr
2 ..f.f.....
3 .ttt..f...
4 ......r...
5 .f........

Turn = 6.
  0123456789
0 ..f..f....
1 .......rf.
2 ..t.f....r
3 .ttt..f...
4 .......r..
5 .f........

Turn = 7.
  0123456789
0 ..f..f..r.
1 .......r..
2 ..t.f.....
3 .ttt..f..r
4 ........r.
5 .f........

Turn = 8.
  0123456789
0 ..f..f..r.
1 ........r.
2 ..t.f.....
3 .ttt..f...
4 ........rr
5 .f........

Turn = 9.
  0123456789
0 ..f..f.r..
1 .........r
2 ..t.f.....
3 .ttt..f...
4 ..........
5 .f......rr

Turn = 10.
  0123456789
0 ..f..fr...
1 .........r
2 ..t.f.....
3 .ttt..f...
4 ..........
5 .f......rr

Turn = 11.
  0123456789
0 ..f..rr...
1 ..........
2 ..t.f....r
3 .ttt..f...
4 ..........
5 .f.....rr.

Turn = 12.
  0123456789
0 ..f..rr...
1 ..........
2 ..t.f.....
3 .ttt..f..r
4 ..........
5 .f....rr..

Turn = 13.
  0123456789
0 ..f..r....
1 ......r...
2 ..t.f.....
3 .ttt..f...
4 .........r
5 .f...rr...

Turn = 14.
  0123456789
0 ..f...r...
1 ..........
2 ..t.f.r...
3 .ttt..f...
4 ..........
5 .f..rr...r

Turn = 15.
  0123456789
0 ..f....r..
1 ..........
2 ..t.f.r...
3 .ttt.r....
4 ..........
5 .f.rr....r

Turn = 16.
  0123456789
0 ..f.....r.
1 ..........
2 ..t.f.....
3 .tttr.r...
4 ..........
5 .frr....r.

Turn = 17.
  0123456789
0 ..f......r
1 ..........
2 ..t.f.....
3 .tttt.....
4 ......r...
5 .rrr...r..

*** Darwin 1x9 ***
Turn = 0.
  012345678
0 ..hffrr.f

Turn = 3.
  012345678
0 ..hrrrr.f

Turn = 6.
  012345678
0 ..rrr.rrr

Turn = 9.
  012345678
0 r..rr.rrr

Turn = 12.
  012345678
0 .rr.rrrr.

Turn = 15.
  012345678
0 .rr.rrrr.

*** Darwin 9x12 ***
Turn = 0.
  012345678901
0 ............
1 .......ff...
2 ......r.....
3 ..r....h....
4 ..........h.
5 .....r......
6 .....h......
7 h.......r...
8 .......h..t.

Turn = 1.
  012345678901
0 ............
1 .......ff...
2 .......r....
3 ...r........
4 .......h...h
5 .....hr.....
6 ............
7 .........r..
8 h......h..t.

Turn = 2.
  012345678901
0 ............
1 .......ff...
2 ........r...
3 ....r.......
4 .....h.....h
5 ......rr....
6 ............
7 ..........r.
8 h......h..t.

Turn = 3.
  012345678901
0 ............
1 .......ff...
2 .........r..
3 .....r......
4 .....h.....h
5 ......r.....
6 .......r....
7 ...........r
8 h......h..t.

Turn = 4.
  012345678901
0 ............
1 .......ff...
2 ..........r.
3 .....hr.....
4 ...........h
5 ............
6 ......r.....
7 .......r...r
8 h......h..t.

Turn = 5.
  012345678901
0 ............
1 .......ff...
2 .....h.....r
3 .......r....
4 ...........h
5 ............
6 ...........r
7 ......rr....
8 h......r..t.

Turn = 6.
  012345678901
0 ............
1 .....h.ff...
2 ...........r
3 ........r...
4 ...........h
5 ...........r
6 ............
7 .......r....
8 h.....rr..t.

Turn = 7.
  012345678901
0 .....h......
1 .......ff...
2 ............
3 .........r.r
4 ...........r
5 ...........r
6 ............
7 ......rr....
8 h.....r...t.

Turn = 8.
  012345678901
0 .....h......
1 .......ff...
2 ............
3 ..........rr
4 ...........r
5 ...........r
6 .......r....
7 .....r......
8 h......r..t.

Turn = 9.
  012345678901
0 .....h......
1 .......ff...
2 ............
3 ..........rr
4 ...........r
5 .......r...r
6 ............
7 ....r.......
8 h.......r.t.

Turn = 10.
  012345678901
0 .....h......
1 .......ff...
2 ..........r.
3 ...........r
4 .......r...r
5 ............
6 ...........r
7 ...r........
8 h........tt.

Turn = 11.
  012345678901
0 .....h......
1 .......ff.r.
2 ............
3 .......r..rr
4 ............
5 ............
6 ............
7 ..r........r
8 h........tt.

Turn = 12.
  012345678901
0 .....h....r.
1 .......ff...
2 .......r...r
3 .........r..
4 ............
5 ............
6 ............
7 .r..........
8 h........ttr

Turn = 13.
  012345678901
0 .....h....r.
1 .......rf..r
2 .......r....
3 ........r...
4 ............
5 ............
6 ............
7 r...........
8 h........ttt

Turn = 14.
  012345678901
0 .....h...r.r
1 .......r.r..
2 .......r....
3 .......r....
4 ............
5 ............
6 ............
7 r...........
8 h........ttt

Turn = 15.
  012345678901
0 .....h..r..r
1 ........r.r.
2 ......r.....
3 ......r.....
4 ............
5 ............
6 ............
7 r...........
8 r........ttt

*** Darwin 9x20 ***
Turn = 0.
  01234567890123456789
0 ............r.......
1 ....................
2 ....................
3 ....................
4 ....................
5 ....................
6 ...t................
7 ....................
8 ....................

Turn = 4.
  01234567890123456789
0 ...............r....
1 ....................
2 ....................
3 ....................
4 ....................
5 ....................
6 ...t................
7 ....................
8 ....................

Turn = 8.
  01234567890123456789
0 ...................r
1 ....................
2 ....................
3 ....................
4 ....................
5 ....................
6 ...t................
7 ....................
8 ....................

Turn = 12.
  01234567890123456789
0 ....................
1 ...................r
2 ....................
3 ....................
4 ....................
5 ....................
6 ...t................
7 ....................
8 ....................

*** Darwin 19x12 ***
Turn = 0.
  012345678901
0 .......t....
1 ............
2 ............
3 .....f......
4 ............
5 ............
6 ............
7 ............
8 ............
9 ............
0 ............
1 ............
2 ............
3 ............
4 ............
5 ............
6 ............
7 ............
8 ............

Turn = 5.
  012345678901
0 .......t....
1 ............
2 ............
3 .....f......
4 ............
5 ............
6 ............
7 ............
8 ............
9 ............
0 ............
1 ............
2 ............
3 ............
4 ............
5 ............
6 ............
7 ............
8 ............

Turn = 10.
  012345678901
0 .......t....
1 ............
2 ............
3 .....f......
4 ............
5 ............
6 ............
7 ............
8 ............
9 ............
0 ............
1 ............
2 ............
3 ............
4 ............
5 ............
6 ............
7 ............
8 ............

*** Darwin 12x4 ***
Turn = 0.
  0123
0 ....
1 ....
2 .tf.
3 ....
4 ....
5 r...
6 .f.h
7 ..h.
8 t.hh
9 ....
0 ....
1 ..r.

Turn = 1.
  0123
0 ....
1 ....
2 .tt.
3 ....
4 ....
5 .r..
6 .fh.
7 .h.h
8 th..
9 ....
0 ..r.
1 ....

Turn = 2.
  0123
0 ....
1 ....
2 .tt.
3 ....
4 ....
5 ..r.
6 .fhh
7 h...
8 th..
9 ..r.
0 ....
1 ....

Turn = 3.
  0123
0 ....
1 ....
2 .tt.
3 ....
4 ....
5 ...r
6 .fhh
7 h...
8 ttr.
9 ....
0 ....
1 ....

Turn = 4.
  0123
0 ....
1 ....
2 .tt.
3 ....
4 ....
5 ...r
6 .fhh
7 h.r.
8 tt..
9 ....
0 ....
1 ....

Turn = 5.
  0123
0 ....
1 ....
2 .tt.
3 ....
4 ....
5 ...r
6 .frr
7 t.r.
8 tt..
9 ....
0 ....
1 ....

Turn = 6.
  0123
0 ....
1 ....
2 .tt.
3 ....
4 ....
5 ...r
6 .rrr
7 t.r.
8 tt..
9 ....
0 ....
1 ....

Turn = 7.
  0123
0 ....
1 ....
2 .tt.
3 ....
4 ....
5 ..rr
6 rr..
7 t..r
8 tt..
9 ....
0 ....
1 ....

Turn = 8.
  0123
0 ....
1 ....
2 .tt.
3 ....
4 ...r
5 .r..
6 rr..
7 t..r
8 tt..
9 ....
0 ....
1 ....

Turn = 9.
  0123
0 ....
1 ....
2 .tt.
3 ...r
4 ....
5 r...
6 t..r
7 tr..
8 tt..
9 ....
0 ....
1 ....

Turn = 10.
  0123
0 ....
1 ....
2 .ttr
3 ....
4 ....
5 r..r
6 t...
7 tr..
8 tr..
9 ....
0 ....
1 ....

Turn = 11.
  0123
0 ....
1 ...r
2 .tt.
3 ....
4 r..r
5 ....
6 t...
7 tr..
8 rr..
9 ....
0 ....
1 ....

Turn = 12.
  0123
0 ...r
1 ....
2 .tt.
3 r..r
4 ....
5 ....
6 t...
7 rr..
8 rr..
9 ....
0 ....
1 ....

Turn = 13.
  0123
0 ...r
1 ....
2 rttr
3 ....
4 ....
5 ....
6 t...
7 rr..
8 tt..
9 ....
0 ....
1 ....

Turn = 14.
  0123
0 ..r.
1 r..r
2 .tt.
3 ....
4 ....
5 ....
6 t...
7 rr..
8 tt..
9 ....
0 ....
1 ....

Turn = 15.
  0123
0 rr.r
1 ....
2 .tt.
3 ....
4 ....
5 ....
6 t...
7 tt..
8 tt..
9 ....
0 ....
1 ....

Turn = 16.
  0123
0 rr.r
1 ....
2 .tt.
3 ....
4 ....
5 ....
6 t...
7 tt..
8 tt..
9 ....
0 ....
1 ....

*** Darwin 3x19 ***
Turn = 0.
  0123456789012345678
0 ..............t....
1 t..trf.......rt....
2 ..r.......r..h.....

Turn = 5.
  0123456789012345678
0 .............tt....
1 t..ttt.......tt....
2 ....t.........t....

Turn = 10.
  0123456789012345678
0 .............tt....
1 t..ttt.......tt....
2 ....t.........t....

Turn = 15.
  0123456789012345678
0 .............tt....
1 t..ttt.......tt....
2 ....t.........t....

*** Darwin 18x11 ***
Turn = 0.
  01234567890
0 ...........
1 ...........
2 ...........
3 ...t.......
4 ...........
5 ...........
6 ........th.
7 ........f..
8 ..h......f.
9 .......t...
0 ...........
1 ......t....
2 .......f...
3 ...........
4 ..........t
5 ....t......
6 .r.........
7 ....f......

Turn = 10.
  01234567890
0 ..h........
1 ...........
2 ...........
3 ...t.......
4 ...........
5 ...........
6 .r......t..
7 ........tt.
8 .........t.
9 .......t...
0 ...........
1 ......t....
2 .......f...
3 ...........
4 ..........t
5 ....t......
6 ...........
7 ....f......

*** Darwin 4x5 ***
Turn = 0.
  01234
0 thrr.
1 ....f
2 f....
3 .t.h.

Turn = 8.
  01234
0 ttt.r
1 .....
2 f...r
3 .t.h.

Turn = 16.
  01234
0 tttr.
1 ....r
2 f.r..
3 .t...

*** Darwin 7x6 ***
Turn = 0.
  012345
0 ....h.
1 ......
2 ......
3 ......
4 ......
5 ......
6 ......

Turn = 2.
  012345
0 .....h
1 ......
2 ......
3 ......
4 ......
5 ......
6 ......

Turn = 4.
  012345
0 .....h
1 ......
2 ......
3 ......
4 ......
5 ......
6 ......

Turn = 6.
  012345
0 .....h
1 ......
2 ......
3 ......
4 ......
5 ......
6 ......

Turn = 8.
  012345
0 .....h
1 ......
2 ......
3 ......
4 ......
5 ......
6 ......

Turn = 10.
  012345
0 .....h
1 ......
2 ......
3 ......
4 ......
5 ......
6 ......

Turn = 12.
  012345
0 .....h
1 ......
2 ......
3 ......
4 ......
5 ......
6 ......

Turn = 14.
  012345
0 .....h
1 ......
2 ......
3 ......
4 ......
5 ......
6 ......

Turn = 16.
  012345
0 .....h
1 ......
2 ......
3 ......
4 ......
5 ......
6 ......

Turn = 18.
  012345
0 .....h
1 ......
2 ......
3 ......
4 ......
5 ......
6 ......

*** Darwin 8x16 ***
Turn = 0.
  0123456789012345
0 .........f......
1 .......t........
2 f...............
3 .....tfr........
4 .......t....t...
5 .........t......
6 t.r.f...........
7 ......rt........

Turn = 9.
  0123456789012345
0 .....r...r.r....
1 .......t........
2 f...............
3 ................
4 .........t.tt...
5 .........t......
6 r...f...........
7 ....rr.t........

*** Darwin 16x3 ***
Turn = 0.
  012
0 ...
1 ...
2 ...
3 t.t
4 .r.
5 h..
6 ...
7 r.r
8 ...
9 ...
0 ...
1 h..
2 ...
3 t..
4 ...
5 h..

Turn = 2.
  012
0 ...
1 ...
2 ...
3 t.t
4 r..
5 ..r
6 ...
7 h..
8 ...
9 r..
0 ...
1 ...
2 h..
3 t..
4 h..
5 ...

Turn = 4.
  012
0 ...
1 ...
2 ...
3 t.r
4 t.r
5 ...
6 ...
7 ...
8 ...
9 h..
0 ...
1 r..
2 t..
3 t..
4 h..
5 ...

Turn = 6.
  012
0 ...
1 ...
2 ..r
3 rr.
4 t..
5 ...
6 ...
7 ...
8 ...
9 ...
0 h..
1 ...
2 r.r
3 t..
4 t..
5 ...

Turn = 8.
  012
0 ..r
1 ...
2 .r.
3 t..
4 t..
5 ...
6 ...
7 ...
8 ...
9 ...
0 ...
1 h..
2 r..
3 r.r
4 r..
5 ...

Turn = 10.
  012
0 .rr
1 ...
2 ...
3 t..
4 t..
5 ...
6 ...
7 ...
8 ...
9 ...
0 ...
1 r..
2 r..
3 ..r
4 ...
5 r.r

*** Darwin 11x8 ***
Turn = 0.
  01234567
0 .....r.f
1 .......r
2 ..tt..r.
3 ........
4 t.......
5 ........
6 t.f.....
7 ..f.....
8 ...r.t..
9 .....r..
0 t......h

Turn = 4.
  01234567
0 .......r
1 ........
2 ..tt...r
3 ........
4 t..r....
5 .......r
6 t.f...r.
7 ..f.....
8 .....t..
9 .....t..
0 t......h

Turn = 8.
  01234567
0 ........
1 .......r
2 ..tt....
3 ....r...
4 t.......
5 ........
6 t.f....r
7 ..f.....
8 .....ttt
9 .....t..
0 t......h

Turn = 12.
  01234567
0 ........
1 ........
2 ..tt..r.
3 ........
4 t.......
5 .......r
6 t.f.....
7 ..f...r.
8 .....trr
9 .....t..
0 t......h

*** Darwin 20x12 ***
Turn = 0.
  012345678901
0 ............
1 ............
2 ............
3 ...f........
4 ............
5 ............
6 ............
7 ............
8 ...........f
9 ............
0 ............
1 ............
2 ......r.f...
3 ............
4 .r..........
5 ............
6 ............
7 ............
8 ............
9 ...........r

Turn = 9.
  012345678901
0 ............
1 ............
2 ............
3 ...f..r.....
4 ............
5 .r..........
6 ............
7 ............
8 ...........f
9 ............
0 ............
1 ............
2 ........f...
3 ............
4 ............
5 ............
6 ............
7 ............
8 ............
9 ......r.....

*** Darwin 13x12 ***
Turn = 0.
  012345678901
0 ............
1 .h........t.
2 ....t.......
3 ............
4 ............
5 .....f......
6 ............
7 t...........
8 ............
9 ............
0 ...h...f....
1 ............
2 t...........

Turn = 7.
  012345678901
0 ............
1 ........h.t.
2 ....t.......
3 ............
4 ............
5 .....f......
6 ............
7 t...........
8 ............
9 ............
0 .......f....
1 ............
2 t..h........

Turn = 14.
  012345678901
0 ............
1 .........tt.
2 ....t.......
3 ............
4 ............
5 .....f......
6 ............
7 t...........
8 ............
9 ............
0 .......f....
1 ............
2 t..h........

*** Darwin 10x11 ***
Turn = 0.
  01234567890
0 ..........h
1 ...........
2 ...........
3 ...........
4 ....tr...th
5 h..........
6 ....hr.t...
7 h...ht.....
8 ...h.h..r.r
9 t.......h..

Turn = 2.
  01234567890
0 ..........h
1 ...........
2 ...........
3 ...........
4 ....t..r.tt
5 .......r...
6 h....hr....
7 h.hh.t..h.r
8 .......h.r.
9 t..........

Turn = 4.
  01234567890
0 ..........h
1 ...........
2 ...........
3 .......r.r.
4 ....t...r.t
5 ...h....r.r
6 h.....hr.r.
7 hh...t.....
8 .........h.
9 t..........

Turn = 6.
  01234567890
0 ..........h
1 .......r.r.
2 ...........
3 ...h....r..
4 ....t....rr
5 .........rr
6 h......h.r.
7 hh...t.....
8 ..........h
9 t..........

Turn = 8.
  01234567890
0 .......r.rh
1 ...h....r..
2 ..........r
3 ...........
4 ....t....rr
5 ..........r
6 h........hr
7 hh...t.....
8 ..........h
9 t..........

Turn = 10.
  01234567890
0 ...h....rrr
1 .........rr
2 .........r.
3 ..........r
4 ....t.....r
5 ........r..
6 h.........h
7 hh...t.....
8 ..........h
9 t..........

Turn = 12.
  01234567890
0 ...h...r.rr
1 .........rr
2 .........rr
3 ..........r
4 ....t......
5 ......r....
6 h.........h
7 hh...t.....
8 ..........h
9 t..........

Turn = 14.
  01234567890
0 ...h.r...rr
1 .......r..r
2 ..........r
3 ...........
4 ....t....rr
5 ....r......
6 h.........h
7 hh...t.....
8 ..........h
9 t..........

*** Darwin 10x1 ***
Turn = 0.
  0
0 .
1 t
2 f
3 r
4 h
5 r
6 h
7 .
8 .
9 .

Turn = 2.
  0
0 .
1 t
2 t
3 t
4 r
5 r
6 h
7 .
8 .
9 .

Turn = 4.
  0
0 .
1 t
2 t
3 r
4 r
5 r
6 h
7 .
8 .
9 .

Turn = 6.
  0
0 .
1 t
2 r
3 r
4 r
5 r
6 h
7 .
8 .
9 .

Turn = 8.
  0
0 .
1 t
2 t
3 r
4 r
5 r
6 h
7 .
8 .
9 .

Turn = 10.
  0
0 .
1 t
2 t
3 r
4 r
5 r
6 h
7 .
8 .
9 .

Turn = 12.
  0
0 .
1 t
2 t
3 t
4 r
5 r
6 r
7 .
8 .
9 .

Turn = 14.
  0
0 .
1 t
2 t
3 t
4 r
5 .
6 r
7 .
8 r
9 .

Turn = 16.
  0
0 .
1 t
2 t
3 t
4 t
5 .
6 .
7 .
8 r
9 r

*** Darwin 18x7 ***
Turn = 0.
  0123456
0 .......
1 .....h.
2 .......
3 r..r...
4 .......
5 t......
6 t......
7 ...t...
8 .......
9 .......
0 .......
1 .....f.
2 .f...t.
3 ...t...
4 .......
5 .......
6 .....h.
7 ..f....

Turn = 3.
  0123456
0 r......
1 .......
2 .......
3 r......
4 .....h.
5 t......
6 t......
7 ...t...
8 .......
9 .......
0 .......
1 .....t.
2 .f...t.
3 ...t.h.
4 .......
5 .......
6 .......
7 ..f....

Turn = 6.
  0123456
0 ..r....
1 .......
2 .......
3 .......
4 r......
5 .r.....
6 t......
7 ...t.h.
8 .......
9 .......
0 .......
1 .....t.
2 .f...t.
3 ...t.t.
4 .......
5 .......
6 .......
7 ..f....

Turn = 9.
  0123456
0 .....r.
1 .......
2 .......
3 .......
4 .......
5 ....r..
6 r.r....
7 ...t...
8 .......
9 .......
0 .....h.
1 .....t.
2 .f...t.
3 ...t.t.
4 .......
5 .......
6 .......
7 ..f....

Turn = 12.
  0123456
0 .......
1 ......r
2 .......
3 .......
4 .......
5 ......r
6 .....r.
7 ...t...
8 .......
9 r......
0 .....t.
1 .....t.
2 .f...t.
3 ...t.t.
4 .......
5 .......
6 .......
7 ..f....

*** Darwin 3x18 ***
Turn = 0.
  012345678901234567
0 t.....rf......h..f
1 ...r..h..r..rr....
2 .....r..t..f...f..

Turn = 7.
  012345678901234567
0 t......r.rr......f
1 .......rrr........
2 .r.....rr..f..hf..

Turn = 14.
  012345678901234567
0 r...r.r...rr...r.f
1 rr.r.r....r.......
2 ..............hf..
