22

7 7
7
t 3 6 s
t 3 2 e
t 2 2 e
r 4 1 e
r 4 6 s
f 3 5 e
h 3 4 n
52 7

8 1
6
h 0 0 n
f 7 0 s
h 4 0 n
t 0 0 n
h 3 0 e
h 4 0 w
5 1

7 2
9
h 0 0 e
f 2 0 e
h 3 1 w
f 3 0 w
r 0 1 s
h 4 0 w
r 3 1 s
r 1 0 s
f 1 1 e
99 9

3 10
2
r 2 3 e
h 2 1 s
45 10

2 8
8
f 1 3 w
f 0 4 e
f 1 0 s
t 1 7 e
f 1 0 e
f 1 2 e
f 0 6 w
h 1 7 n
88 9

10 5
8
r 2 3 s
r 8 1 n
f 1 3 n
r 8 4 n
r 0 0 w
f 9 4 w
r 0 2 s
h 8 0 w
66 10

2 2
6
r 1 1 n
t 0 0 e
f 0 1 w
t 0 0 w
h 1 1 s
t 0 0 w
96 1

2 5
4
r 0 4 s
t 0 3 s
f 0 3 w
t 0 1 e
9 1

8 4
7
f 5 0 w
f 5 2 n
r 5 0 s
f 1 3 e
r 5 0 n
t 6 2 n
f 5 0 e
84 5

2 5
2
f 1 3 s
t 1 4 w
31 10

5 5
14
r 2 2 s
f 1 3 n
t 1 3 s
f 1 4 e
f 2 3 s
t 3 3 n
f 0 0 e
t 2 2 e
h 2 1 w
h 0 4 w
f 2 4 s
h 2 3 w
f 4 2 e
t 0 0 e
49 5

6 1
5
f 2 0 s
f 2 0 n
t 5 0 n
t 5 0 w
r 4 0 s
94 10

3 3
5
h 2 1 n
f 0 2 n
h 1 0 e
f 1 1 e
h 1 0 e
71 1

3 8
12
h 2 3 n
h 0 1 n
h 1 2 e
f 0 1 e
r 2 0 e
t 1 2 e
f 2 5 n
r 1 7 n
r 0 0 s
h 2 5 w
h 1 4 w
f 2 6 n
12 8

6 1
5
r 0 0 n
h 3 0 e
r 1 0 w
f 3 0 s
h 1 0 e
63 6

9 3
14
t 3 1 e
t 5 0 n
f 0 0 w
f 3 1 e
r 1 2 e
h 0 0 e
h 3 1 e
h 2 2 n
f 5 2 w
h 4 0 w
h 3 1 e
h 3 0 e
f 8 0 s
t 0 2 e
11 9

8 7
6
f 6 3 s
f 5 4 s
f 2 2 n
h 3 5 s
f 2 5 w
t 0 6 w
26 3

3 5
13
h 0 1 s
h 2 3 e
h 1 4 s
f 1 4 e
f 2 0 s
r 2 1 w
f 1 0 w
t 2 2 e
f 1 4 s
r 1 2 e
t 2 3 e
t 1 0 n
t 0 3 n
89 4

6 6
8
f 1 1 w
h 5 4 e
h 3 1 n
r 4 5 s
h 0 5 s
f 0 2 e
r 0 0 s
r 2 3 e
13 1

5 3
7
h 3 1 w
f 0 0 e
h 2 0 n
t 2 0 n
r 2 2 s
f 0 1 e
h 4 0 e
98 10

6 10
15
r 0 7 n
f 2 5 s
h 2 2 n
h 3 3 w
r 3 6 n
t 3 6 e
h 2 7 s
f 2 8 n
t 4 0 w
f 2 6 n
h 4 5 s
t 3 3 w
r 1 0 e
r 0 8 w
r 2 7 s
26 9

3 7
1
h 0 2 e
62 6
