*** Darwin 6x3 ***
Turn = 0.
  012
0 h..
1 ...
2 .h.
3 ...
4 .f.
5 ..h

Turn = 1.
  012
0 h..
1 ...
2 ..h
3 ...
4 .fh
5 ...

*** Darwin 9x5 ***
Turn = 0.
  01234
0 .....
1 .....
2 ....r
3 .....
4 ...t.
5 ....f
6 .....
7 .....
8 .....

Turn = 1.
  01234
0 .....
1 ....r
2 .....
3 .....
4 ...t.
5 ....f
6 .....
7 .....
8 .....

Turn = 2.
  01234
0 ....r
1 .....
2 .....
3 .....
4 ...t.
5 ....f
6 .....
7 .....
8 .....

Turn = 3.
  01234
0 ....r
1 .....
2 .....
3 .....
4 ...t.
5 ....f
6 .....
7 .....
8 .....

Turn = 4.
  01234
0 ....r
1 .....
2 .....
3 .....
4 ...t.
5 ....f
6 .....
7 .....
8 .....

Turn = 5.
  01234
0 ....r
1 .....
2 .....
3 .....
4 ...t.
5 ....f
6 .....
7 .....
8 .....

*** Darwin 10x15 ***
Turn = 0.
  012345678901234
0 ...........r...
1 ...............
2 ...............
3 ..............r
4 ..f...r........
5 ..f..........h.
6 ...r...........
7 ...f...........
8 ...............
9 t..............

*** Darwin 2x2 ***
Turn = 0.
  01
0 .t
1 .h

Turn = 2.
  01
0 .t
1 .h

Turn = 4.
  01
0 .t
1 .t

*** Darwin 2x5 ***
Turn = 0.
  01234
0 ....r
1 .....

Turn = 1.
  01234
0 .....
1 ....r

Turn = 2.
  01234
0 .....
1 ....r

Turn = 3.
  01234
0 .....
1 ...r.

Turn = 4.
  01234
0 .....
1 ..r..

Turn = 5.
  01234
0 .....
1 .r...

*** Darwin 2x9 ***
Turn = 0.
  012345678
0 .h.......
1 .f.......

Turn = 3.
  012345678
0 h........
1 .f.......

*** Darwin 4x2 ***
Turn = 0.
  01
0 t.
1 t.
2 .h
3 ..

Turn = 3.
  01
0 t.
1 t.
2 .h
3 ..

*** Darwin 6x3 ***
Turn = 0.
  012
0 ...
1 ...
2 .t.
3 h..
4 .ht
5 ...

Turn = 1.
  012
0 ...
1 ...
2 .t.
3 h..
4 .ht
5 ...

Turn = 2.
  012
0 ...
1 ...
2 .t.
3 h..
4 .ht
5 ...

Turn = 3.
  012
0 ...
1 ...
2 .t.
3 h..
4 .ht
5 ...

Turn = 4.
  012
0 ...
1 ...
2 .t.
3 h..
4 .tt
5 ...

*** Darwin 3x2 ***
Turn = 0.
  01
0 ff
1 .h
2 ft

Turn = 1.
  01
0 ff
1 .t
2 ft

Turn = 2.
  01
0 ff
1 .t
2 ft

Turn = 3.
  01
0 ff
1 .t
2 tt

Turn = 4.
  01
0 ft
1 .t
2 tt

*** Darwin 5x5 ***
Turn = 0.
  01234
0 .rh..
1 t..f.
2 ..f.r
3 .....
4 .....

Turn = 3.
  01234
0 th...
1 t..f.
2 .rr..
3 .....
4 .....

*** Darwin 6x9 ***
Turn = 0.
  012345678
0 h........
1 .....r...
2 .........
3 ......h..
4 ......r..
5 .....r...

*** Darwin 4x5 ***
Turn = 0.
  01234
0 ..ffh
1 ...f.
2 .r...
3 .....

Turn = 1.
  01234
0 ..ff.
1 .r.fh
2 .....
3 .....

Turn = 2.
  01234
0 .rff.
1 ...f.
2 ....h
3 .....

Turn = 3.
  01234
0 .rff.
1 ...f.
2 .....
3 ....h

Turn = 4.
  01234
0 .rrf.
1 ...f.
2 .....
3 ....h

*** Darwin 5x2 ***
Turn = 0.
  01
0 tt
1 .t
2 tf
3 t.
4 ..

Turn = 2.
  01
0 tt
1 .t
2 tf
3 t.
4 ..

Turn = 4.
  01
0 tt
1 .t
2 tt
3 t.
4 ..

*** Darwin 2x2 ***
Turn = 0.
  01
0 .r
1 .t

Turn = 3.
  01
0 .r
1 .r

*** Darwin 6x9 ***
Turn = 0.
  012345678
0 .......t.
1 ......r.f
2 .........
3 .........
4 .........
5 ....h...f

Turn = 2.
  012345678
0 ......rt.
1 ........f
2 .........
3 ....h....
4 .........
5 ........f

Turn = 4.
  012345678
0 .......rr
1 ....h...f
2 .........
3 .........
4 .........
5 ........f

*** Darwin 2x5 ***
Turn = 0.
  01234
0 t....
1 hr...

Turn = 2.
  01234
0 t....
1 rr...

*** Darwin 4x8 ***
Turn = 0.
  01234567
0 ....r..h
1 ...ht...
2 f....t..
3 ..r..r..

Turn = 2.
  01234567
0 ......r.
1 ..r.t...
2 f....t.h
3 ...h...r

Turn = 4.
  01234567
0 ..r....r
1 ....t...
2 f....t.h
3 ...h...r

*** Darwin 2x7 ***
Turn = 0.
  0123456
0 tt.....
1 .h...hh

Turn = 1.
  0123456
0 tt.....
1 ..h..hh

Turn = 2.
  0123456
0 tt.....
1 ...h.hh

Turn = 3.
  0123456
0 tt.....
1 ....hhh

Turn = 4.
  0123456
0 tt.....
1 ....hhh

Turn = 5.
  0123456
0 tt.....
1 ....hhh

*** Darwin 2x7 ***
Turn = 0.
  0123456
0 .t.h..r
1 t....t.

Turn = 3.
  0123456
0 .t....h
1 t....tr

*** Darwin 8x5 ***
Turn = 0.
  01234
0 .....
1 .r...
2 .....
3 .....
4 ...t.
5 .....
6 .f...
7 .....

Turn = 2.
  01234
0 .....
1 r....
2 .....
3 .....
4 ...t.
5 .....
6 .f...
7 .....

Turn = 4.
  01234
0 r....
1 .....
2 .....
3 .....
4 ...t.
5 .....
6 .f...
7 .....

*** Darwin 8x2 ***
Turn = 0.
  01
0 ..
1 .h
2 ..
3 .f
4 ht
5 ..
6 tf
7 f.

Turn = 1.
  01
0 ..
1 .h
2 ..
3 .f
4 tt
5 ..
6 tt
7 f.

Turn = 2.
  01
0 ..
1 .h
2 ..
3 .f
4 tt
5 ..
6 tt
7 f.

Turn = 3.
  01
0 ..
1 .h
2 ..
3 .f
4 tt
5 ..
6 tt
7 f.

Turn = 4.
  01
0 ..
1 .h
2 ..
3 .f
4 tt
5 ..
6 tt
7 f.

Turn = 5.
  01
0 ..
1 .h
2 ..
3 .t
4 tt
5 ..
6 tt
7 t.

Turn = 6.
  01
0 ..
1 .h
2 ..
3 .t
4 tt
5 ..
6 tt
7 t.

Turn = 7.
  01
0 ..
1 .h
2 ..
3 .t
4 tt
5 ..
6 tt
7 t.

Turn = 8.
  01
0 ..
1 .h
2 ..
3 .t
4 tt
5 ..
6 tt
7 t.

Turn = 9.
  01
0 ..
1 .h
2 ..
3 .t
4 tt
5 ..
6 tt
7 t.

Turn = 10.
  01
0 ..
1 .h
2 ..
3 .t
4 tt
5 ..
6 tt
7 t.
