20

2 2
1
f 1 1 e
2 1

6 6
8
f 1 1 e
f 4 4 s
f 5 3 w
r 3 2 s
r 2 3 e
t 1 2 w
t 3 3 w
t 5 1 n
18 2

4 4
6
h 3 3 w
h 3 2 s
h 3 1 e
h 1 2 n
f 2 1 e
t 3 2 w
8 1

10 10
20
f 1 1 e
f 1 2 e
f 1 3 e
f 1 4 e
f 1 5 e
f 1 6 e
f 1 7 e
f 1 8 e
f 1 9 e
f 2 1 e
h 3 3 w
h 3 2 s
h 3 1 e
h 1 2 n
f 2 1 e
t 3 2 w
t 2 3 e
t 3 2 w
h 3 1 e
h 3 3 s
3 1

4 6
4
t 2 3 e
t 3 2 w
h 3 1 e
h 3 3 s
100 20

10 10
9
h 3 2 w
h 3 3 s
h 2 3 w
h 2 2 e
t 1 1 n
t 1 2 s
r 4 4 w
r 4 5 e
r 9 9 n
200 100

4 4
2
r 2 3 w
r 3 2 e
300 100

5 5
8
r 3 1 w
r 1 3 e
r 2 1 s
r 2 2 n
f 3 3 s
f 3 2 w
f 2 1 e
t 1 1 n
1300 100

3 3
1
h 1 1 s
500 50

4 4
2
h 1 1 s
h 3 3 n
500 50

5 5
3
f 2 3 w
h 3 3 s
r 1 2 n
100 25

8 8
5
f 2 3 w
f 3 3 s
r 1 2 e
h 4 4 s
t 6 6 n
80 20

7 7
7
r 1 1 w
r 2 2 s
r 3 3 e
r 4 4 n
r 5 5 w
r 6 6 s
f 3 1 e
90 30

3 3
3
h 1 1 w
h 2 2 s
h 2 2 e
40 20

6 6
6
r 2 1 e
r 1 2 s
h 3 2 s
h 1 1 s
h 0 0 w
h 2 3 w
60 30

9 9
7
h 3 3 s
h 1 1 w
h 2 2 s
h 2 3 e
t 3 2 w
h 3 3 w
h 5 5 s
1000 200

10 10
15
t 3 2 w
h 3 3 w
h 5 5 s
r 1 1 w
r 2 2 s
r 3 3 e
r 4 4 n
r 5 5 w
r 6 6 s
f 3 1 e
t 3 2 w
h 3 3 w
h 5 5 s
f 1 1 e
r 9 9 s
600 200

7 7
3
t 3 2 w
h 3 3 w
h 5 5 s
200 100

6 6
7
r 2 1 e
r 1 2 s
h 3 2 s
h 2 3 w
f 1 3 w
f 3 3 s
r 1 5 e
10 2

3 4
5
r 1 2 e
h 2 1 w
f 2 2 s
f 1 1 s
r 0 0 s
6 3
