*** Darwin 13x11 ***
Turn = 0.
  01234567890
0 ...........
1 ...........
2 ..........r
3 ...........
4 ...........
5 ..r....f...
6 ...........
7 ...........
8 ...........
9 ...........
0 ...........
1 ....r.....r
2 ...........

*** Darwin 10x9 ***
Turn = 0.
  012345678
0 f..f....t
1 .........
2 .h.......
3 r.h......
4 .........
5 h........
6 ....hf...
7 .......th
8 ..h.h....
9 ......r..

Turn = 7.
  012345678
0 f..rh...t
1 ........t
2 ...rh.r.h
3 .....r...
4 .........
5 .........
6 .....f...
7 .......t.
8 .........
9 h.h......

*** Darwin 15x2 ***
Turn = 0.
  01
0 t.
1 ..
2 ..
3 ..
4 ..
5 ..
6 ..
7 ..
8 .h
9 hh
0 ..
1 ..
2 rt
3 ..
4 .t

*** Darwin 11x7 ***
Turn = 0.
  0123456
0 .......
1 .....t.
2 hf.....
3 ......h
4 .....h.
5 ...trh.
6 h......
7 .f...r.
8 .....r.
9 .......
0 r......

Turn = 2.
  0123456
0 .......
1 .....t.
2 hf...h.
3 ....r.h
4 .......
5 ...t...
6 h....r.
7 .f.r.r.
8 .......
9 .......
0 ..r....

Turn = 4.
  0123456
0 .......
1 ....rt.
2 hf...h.
3 ......h
4 .......
5 ...t...
6 h...r..
7 .rr.r..
8 .......
9 .......
0 ....r..

Turn = 6.
  0123456
0 ....r..
1 .....t.
2 hf...t.
3 ......h
4 .......
5 ...t...
6 h.r....
7 r.r....
8 .......
9 .r.....
0 ......r

Turn = 8.
  0123456
0 ......r
1 .....t.
2 hf...t.
3 ......h
4 .......
5 ...t...
6 rr.....
7 rr.....
8 .......
9 .......
0 .r....r

Turn = 10.
  0123456
0 .......
1 .....tr
2 hf...t.
3 ......h
4 .......
5 .r.t...
6 r......
7 r......
8 .......
9 .r.....
0 ...rr..

Turn = 12.
  0123456
0 .......
1 .....t.
2 hf...tr
3 .r....r
4 .......
5 ...t...
6 .......
7 r.r....
8 .......
9 ...r...
0 .r..r..

Turn = 14.
  0123456
0 .......
1 .....t.
2 rr...tt
3 .r....t
4 .......
5 ...t...
6 .......
7 ...rr..
8 .......
9 r......
0 ..rr...

*** Darwin 19x9 ***
Turn = 0.
  012345678
0 .........
1 .....h...
2 .........
3 .........
4 .........
5 .........
6 .........
7 .........
8 .......h.
9 .........
0 ........r
1 .........
2 .........
3 ........h
4 .........
5 .........
6 .........
7 .........
8 .........

*** Darwin 5x17 ***
Turn = 0.
  01234567890123456
0 ..ff.............
1 ............h....
2 ....f............
3 ......rt.........
4 ..........t......

*** Darwin 6x11 ***
Turn = 0.
  01234567890
0 h..h..h..f.
1 ..........h
2 h....t..t..
3 ...t.r.....
4 t........r.
5 .....h.....

Turn = 1.
  01234567890
0 h...h....f.
1 ......h...h
2 .h...t..t..
3 ...t.t...r.
4 t..........
5 ......h....

Turn = 2.
  01234567890
0 h....h...f.
1 ..........h
2 ..h..th.tr.
3 ...t.t.....
4 t..........
5 .......h...

Turn = 3.
  01234567890
0 h.....h..f.
1 .........rh
2 ...h.tt.t..
3 ...t.t.....
4 t..........
5 ........h..

Turn = 4.
  01234567890
0 h......h.r.
1 .........rh
2 ....htt.t..
3 ...t.t.....
4 t..........
5 .........h.

Turn = 5.
  01234567890
0 h.......hr.
1 .........rh
2 ....htt.t..
3 ...t.t.....
4 t..........
5 ..........h

Turn = 6.
  01234567890
0 h.......h.r
1 ........r.h
2 ....ttt.t..
3 ...t.t.....
4 t..........
5 ..........h

Turn = 7.
  01234567890
0 h........hr
1 .......r..h
2 ....ttt.t..
3 ...t.t.....
4 t..........
5 ..........h

Turn = 8.
  01234567890
0 h........hr
1 ......r...r
2 ....ttt.t..
3 ...t.t.....
4 t..........
5 ..........h

Turn = 9.
  01234567890
0 h........hr
1 .....r.....
2 ....ttt.t.r
3 ...t.t.....
4 t..........
5 ..........h

Turn = 10.
  01234567890
0 h........rr
1 ....r......
2 ....ttt.t..
3 ...t.t....r
4 t..........
5 ..........h

Turn = 11.
  01234567890
0 h........rr
1 ...r.......
2 ....ttt.t..
3 ...t.t.....
4 t.........r
5 ..........h

Turn = 12.
  01234567890
0 h..........
1 ..r......rr
2 ....ttt.t..
3 ...t.t.....
4 t.........r
5 ..........r

Turn = 13.
  01234567890
0 h..........
1 .r.........
2 ....ttt.trr
3 ...t.t.....
4 t.........r
5 ..........r

Turn = 14.
  01234567890
0 h..........
1 r..........
2 ....ttt.t..
3 ...t.t...rr
4 t........r.
5 ..........r

Turn = 15.
  01234567890
0 h..........
1 r..........
2 ....ttt.t..
3 ...t.t...r.
4 t.......r.r
5 ..........r

*** Darwin 8x12 ***
Turn = 0.
  012345678901
0 ...t........
1 .h.t........
2 ...t........
3 .......h..h.
4 t..r........
5 ..fh........
6 .....t.....h
7 .f..........

Turn = 2.
  012345678901
0 ...t........
1 ..ht........
2 ...r........
3 ...r....hh..
4 t...........
5 ..f.........
6 .....t...h..
7 .f.h........

Turn = 4.
  012345678901
0 ...t........
1 ..tt........
2 ..r.........
3 ..r.....hh..
4 t...........
5 ..f.........
6 .....t.h....
7 .f.h........

Turn = 6.
  012345678901
0 ...t........
1 ..tt........
2 r...........
3 r.......hh..
4 t...........
5 ..f.........
6 .....th.....
7 .f.h........

Turn = 8.
  012345678901
0 ...t........
1 r.tt........
2 ............
3 t.......hh..
4 t...........
5 ..f.........
6 .....tt.....
7 .f.h........

*** Darwin 1x13 ***
Turn = 0.
  0123456789012
0 tt...rf.t..h.

*** Darwin 5x12 ***
Turn = 0.
  012345678901
0 .h......t...
1 f......t....
2 ....ft......
3 ............
4 ...r........

Turn = 5.
  012345678901
0 .h......t...
1 f......t....
2 ....tt......
3 ............
4 ........r...

Turn = 10.
  012345678901
0 .h......t...
1 f......t....
2 ....tt......
3 ............
4 ...........r

Turn = 15.
  012345678901
0 .h......t...
1 f......t....
2 ....tt......
3 ............
4 ........r...

*** Darwin 11x19 ***
Turn = 0.
  0123456789012345678
0 ...................
1 ...................
2 ...................
3 ...................
4 ...................
5 .......r...........
6 ...................
7 ...................
8 ...................
9 ...................
0 ............f......

Turn = 8.
  0123456789012345678
0 ...................
1 ...................
2 ...................
3 ...................
4 ...................
5 ...............r...
6 ...................
7 ...................
8 ...................
9 ...................
0 ............f......

Turn = 16.
  0123456789012345678
0 ...................
1 ...................
2 ...................
3 ...................
4 ...................
5 ...................
6 ...................
7 ...................
8 ...................
9 ..................r
0 ............f......

*** Darwin 18x8 ***
Turn = 0.
  01234567
0 ........
1 ...f...r
2 ......f.
3 .......t
4 ........
5 ...r....
6 ........
7 ........
8 ........
9 ....h...
0 ........
1 ........
2 ........
3 ........
4 ........
5 .......t
6 ........
7 ........

*** Darwin 20x11 ***
Turn = 0.
  01234567890
0 .........t.
1 ...........
2 ...........
3 ...........
4 t..........
5 .r.........
6 h..t.......
7 .........f.
8 ...........
9 ..h....hf..
0 ...........
1 ...........
2 ......t..f.
3 ...........
4 ...........
5 .....r.....
6 ...........
7 th.........
8 f.r...h....
9 ......r....

*** Darwin 5x14 ***
Turn = 0.
  01234567890123
0 .r.hh..f......
1 rt...........r
2 ...f.....r..t.
3 .........t.rt.
4 .....h..r.t.f.

*** Darwin 17x4 ***
Turn = 0.
  0123
0 ....
1 .r..
2 .h..
3 ....
4 ...f
5 ...t
6 ....
7 ....
8 .r..
9 ....
0 r...
1 ....
2 t...
3 ...t
4 ....
5 .f..
6 ....

*** Darwin 18x18 ***
Turn = 0.
  012345678901234567
0 ..................
1 ..................
2 ..................
3 ..................
4 ..................
5 ..................
6 ..................
7 ..................
8 ..................
9 ..................
0 ..................
1 ..................
2 ..................
3 .................t
4 ......t...........
5 ..................
6 ..................
7 ..................

Turn = 5.
  012345678901234567
0 ..................
1 ..................
2 ..................
3 ..................
4 ..................
5 ..................
6 ..................
7 ..................
8 ..................
9 ..................
0 ..................
1 ..................
2 ..................
3 .................t
4 ......t...........
5 ..................
6 ..................
7 ..................

Turn = 10.
  012345678901234567
0 ..................
1 ..................
2 ..................
3 ..................
4 ..................
5 ..................
6 ..................
7 ..................
8 ..................
9 ..................
0 ..................
1 ..................
2 ..................
3 .................t
4 ......t...........
5 ..................
6 ..................
7 ..................

Turn = 15.
  012345678901234567
0 ..................
1 ..................
2 ..................
3 ..................
4 ..................
5 ..................
6 ..................
7 ..................
8 ..................
9 ..................
0 ..................
1 ..................
2 ..................
3 .................t
4 ......t...........
5 ..................
6 ..................
7 ..................

*** Darwin 3x6 ***
Turn = 0.
  012345
0 ....r.
1 ..r...
2 t...f.

Turn = 11.
  012345
0 ....r.
1 .....r
2 tr....

*** Darwin 20x9 ***
Turn = 0.
  012345678
0 .........
1 .t.......
2 .........
3 .........
4 ....h....
5 .........
6 .........
7 .........
8 .......t.
9 .........
0 .......h.
1 .........
2 .........
3 ...t....r
4 t........
5 ......f..
6 ...r.....
7 .....t...
8 ...t.....
9 .....r.rr

Turn = 4.
  012345678
0 .........
1 .t.......
2 .........
3 .........
4 .........
5 .........
6 .........
7 .........
8 ....h..t.
9 .........
0 ...h.....
1 .........
2 .........
3 ...t.....
4 t........
5 ......f..
6 .......r.
7 .....t..r
8 ...r.t...
9 ..r...r..

Turn = 8.
  012345678
0 .........
1 .t.......
2 .........
3 .........
4 .........
5 .........
6 .........
7 .........
8 .......t.
9 .........
0 h........
1 .........
2 ....h..r.
3 ...t.....
4 t........
5 ......f..
6 .........
7 .....t...
8 r....t...
9 r.r.....r

Turn = 12.
  012345678
0 .........
1 .t.......
2 .........
3 .........
4 .........
5 .........
6 .........
7 .........
8 .......r.
9 .......r.
0 h........
1 .........
2 .........
3 ...t.....
4 t........
5 ......f..
6 ..r.h....
7 .r...t...
8 .....t...
9 ..r.....r

Turn = 16.
  012345678
0 .........
1 .t.......
2 .........
3 .........
4 .........
5 .........
6 .........
7 ........r
8 .........
9 .........
0 h.......r
1 .........
2 ..r......
3 .r.t.....
4 t........
5 ......f.r
6 .........
7 .....t...
8 ....tt...
9 ....t....

Turn = 20.
  012345678
0 .........
1 .t.......
2 .........
3 ........r
4 .........
5 .........
6 .........
7 .........
8 ..r......
9 .r.......
0 h........
1 .........
2 .......r.
3 ...t...r.
4 t........
5 ......f..
6 .........
7 .....t...
8 ....tt...
9 ....t....

*** Darwin 6x18 ***
Turn = 0.
  012345678901234567
0 ..................
1 ......r.......hf..
2 ......t..t........
3 .f......f.........
4 ..t.r.............
5 ................f.

Turn = 17.
  012345678901234567
0 ......r...........
1 .........t.....f..
2 ......t..t........
3 .f......f.........
4 ..t...............
5 ................rr

*** Darwin 5x17 ***
Turn = 0.
  01234567890123456
0 ..ff.............
1 ............h....
2 ....f............
3 ......rt.........
4 ..........t......
